[
    {
        "img": "prince_start.gif",
        "description": "Prince of Persia - could I come downstairs?"
    },
    {
        "img": "prince.gif",
        "description": "Prince of Persia"
    },
    {
        "img": "prince_of_persia_castle.png",
        "description": "Prince of Persia"
    },
    {
        "img": "princess.gif",
        "description": "Prince of Persia"
    },
    {
        "img": "fight.gif",
        "description": "Prince of Persia - Alkhaled"
    },
    {
        "img": "oddparents.gif",
        "description": "The Fairly OddParents"
    },
    {
        "img": "oddparents2.gif",
        "description": "The Fairly OddParents"
    },
    {
        "img": "oddparents3.gif",
        "description": "The Fairly OddParents"
    },
    {
        "img": "goldenboy-toilet.gif",
        "description": "ゴールデンボーイ (Golden Boy)"
    },
    {
        "img": "goldenboy-fake-keyboard.gif",
        "description": "ゴールデンボーイ (Golden Boy)"
    },
    {
        "img": "hackers.gif",
        "description": "Hackers (1995)"
    },
    {
        "img": "hacktheplanet.gif",
        "description": ""
    },
    {
        "img": "hackers_garbage.gif",
        "description": "Hackers (1995)"
    },
    {
        "img": "hackers_cyberdelia.gif",
        "description": "Hackers (1995)"
    },
    {
        "img": "hackers_speakenglish.gif",
        "description": "Hackers (1995)"
    },
    {
        "img": "hackers_foundpool.gif",
        "description": "Hackers (1995)"
    },
    {
        "img": "sneakers.gif",
        "description": "Sneakers (1992)"
    },
    {
        "img": "wargames.gif",
        "description": "WarGames (1983)"
    },
    {
        "img": "wargames1.gif",
        "description": "WarGames (1983)"
    },
    {
        "img": "tron_1.gif",
        "description": "Tron (1982)"
    },
    {
        "img": "tron_2.gif",
        "description": "Tron (1982)"
    },
    {
        "img": "tron_3.gif",
        "description": "Tron (1982)"
    },
    {
        "img": "tron_4.gif",
        "description": "Tron (1982)"
    },
    {
        "img": "tron_5.jpg",
        "description": "Tron (1982)"
    },
    {
        "img": "tron_6.gif",
        "description": "Tron (1982)"
    },
    {
        "img": "motolabirinto.gif",
        "description": "Tron (1982)"
    },
    {
        "img": "boardsofcanada.gif",
        "description": "Boards of Canada"
    },
    {
        "img": "whitewater.gif",
        "description": "Boards of Canada - Whitewater - youtube.com/watch?v=6p4HmyVr2Bo"
    },
    {
        "img": "knoppix.jpg",
        "description": "Knoppix 5.0"
    },
    {
        "img": "gutsygibbon.jpg",
        "description": "Ubuntu (Gutsy Gibbon)"
    },
    {
        "img": "mandrivaboot.jpg",
        "description": "Mandriva 2006"
    },
    {
        "img": "aladdin.gif",
        "description": "Disney's Aladdin (Sega Genesis)"
    },
    {
        "img": "aladdin2.gif",
        "description": "Disney's Aladdin (Sega Genesis)"
    },
    {
        "img": "aladdin_snes_castle.png",
        "description": "Disney's Aladdin (Sega Genesis)"
    },
    {
        "img": "aladdin_snes_rugrun.gif",
        "description": "Disney's Aladdin (Sega Genesis)"
    },
    {
        "img": "aladdin_snes_gameover.gif",
        "description": "Disney's Aladdin (Sega Genesis)"
    },
    {
        "img": "toystory2.gif",
        "description": "Pixar - Toy Story 2"
    },
    {
        "img": "scumbar.gif",
        "description": "The Secret of Monkey Island"
    },
    {
        "img": "monkeyisland.gif",
        "description": "The Secret of Monkey Island"
    },
    {
        "img": "monkeyisland1.gif",
        "description": "The Secret of Monkey Island"
    },
    {
        "img": "yodastories.gif",
        "description": "Star Wars: Yoda Stories"
    },
    {
        "img": "yodastories1.gif",
        "description": "Star Wars: Yoda Stories"
    },
    {
        "img": "yodastories2.gif",
        "description": "Star Wars: Yoda Stories"
    },
    {
        "img": "darkforces.gif",
        "description": "Star Wars: Dark Forces"
    },
    {
        "img": "darkforces2.gif",
        "description": "Star Wars: Dark Forces"
    },
    {
        "img": "darkforces3.gif",
        "description": "Star Wars: Dark Forces"
    },
    {
        "img": "tron_uprising.jpg",
        "description": "Tron: Uprising"
    },
    {
        "img": "yrose.png",
        "description": ""
    },
    {
        "img": "space_jam.png",
        "description": "Space Jam (MS-DOS)"
    },
    {
        "img": "space_jam2.gif",
        "description": "Space Jam (MS-DOS)"
    },
    {
        "img": "space_jam3.gif",
        "description": "Space Jam (MS-DOS)"
    },
    {
        "img": "dontcopy1.gif",
        "description": "Don't Copy That Floppy"
    },
    {
        "img": "dontcopy2.gif",
        "description": "Don't Copy That Floppy"
    },
    {
        "img": "dontcopy3.gif",
        "description": "Don't Copy That Floppy"
    },
    {
        "img": "dontcopy4.gif",
        "description": "Don't Copy That Floppy"
    },
    {
        "img": "dontcopy5.gif",
        "description": "Don't Copy That Floppy"
    },
    {
        "img": "inside_your_computer.jpg",
        "description": "Inside Your Computer"
    },
    {
        "img": "backpackgirl.gif",
        "description": "Parked Domain Girl"
    },
    {
        "img": "tumblr1.jpg",
        "description": ""
    },
    {
        "img": "tumblr2.gif",
        "description": ""
    },
    {
        "img": "tumblr3.gif",
        "description": ""
    },
    {
        "img": "tumblr4.gif",
        "description": ""
    },
    {
        "img": "maze_screensaver.gif",
        "description": "Windows 95 - 3D Maze Screensaver"
    },
    {
        "img": "lunedi_cinema_starting.gif",
        "description": "dubudebududubududà"
    },
    {
        "img": "lunedi_cinema_closing.gif",
        "description": "dubudebududubududà"
    },
    {
        "img": "island_sunrise.gif",
        "description": "Software - Island Sunrise"
    },
    {
        "img": "wicked_city.gif",
        "description": "Wicked City"
    },
    {
        "img": "rollerblade.gif",
        "description": ""
    },
    {
        "img": "rollerblade1.gif",
        "description": ""
    },
    {
        "img": "rollerblade2.gif",
        "description": ""
    },
    {
        "img": "rollerblade3.gif",
        "description": ""
    },
    {
        "img": "rollerblade4.gif",
        "description": ""
    },
    {
        "img": "rollerblade5.gif",
        "description": ""
    },
    {
        "img": "rollerblade6.gif",
        "description": ""
    },
    {
        "img": "tokyodecadence.gif",
        "description": "Tokyo Decadence (トパーズ)"
    },
    {
        "img": "unix_video.gif",
        "description": ""
    },
    {
        "img": "unix_video_2.gif",
        "description": ""
    }
]